…
This document compares the Disability-Adjusted Life Year (DALY) diseases
burden for three countries: UGANDA, KENYA, and TANZANIA. We compare the
burden due to communicable, maternal, neonatal, and nutritional diseases
(CMNN), non-communicable diseases (NCDs), and overall disease burden for
these countries.

The source data is from the Institute for Health Metrics and Evaluation
(IHME) Global Burden of Disease (GBD) study.

# Communicable, Maternal, Neonatal, and Nutritional Disease Burden (CMNN)

## Table of Estimates for CMNN Burden Over Time

    ## # A tibble: 30 × 4
    ##     year  Kenya Tanzania Uganda
    ##    <dbl>  <dbl>    <dbl>  <dbl>
    ##  1  1990 34322.   51624. 75945.
    ##  2  1991 36630.   53380. 76978.
    ##  3  1992 39510.   55460. 77512.
    ##  4  1993 42581.   56854. 77695.
    ##  5  1994 45822.   58453. 76949.
    ##  6  1995 48346.   59609. 76070.
    ##  7  1996 50629.   60213. 74909.
    ##  8  1997 52614.   60717. 73727.
    ##  9  1998 53894.   60494. 72244.
    ## 10  1999 54448.   59438. 70524.
    ## # ℹ 20 more rows
…
